Fip_caderno – FIP_606
…
library(tidyverse)

Carregamento e leitura de arquivos Excel com readxl

Aqui o pacote readxl é usado para importar uma planilha Excel (.xlsx) localizada localmente no computador. A aba (sheet) chamada "sensibilidade_fungicidas" é lida e armazenada no objeto dados.

Code

library(readxl)
library(tidyverse)
dados <- read_excel("dados.xlsx", sheet = "sensibilidade_fungicidas")
dados 

# A tibble: 240 × 9
   code   year trial state dose  replicate germination ...8  ...9 
   <chr> <dbl> <dbl> <chr> <chr>     <dbl>       <dbl> <lgl> <lgl>
 1 FGT05  2007     1 RS    0             1          46 NA    NA   
 2 FGT05  2007     1 RS    0             2          44 NA    NA   
 3 FGT05  2007     1 RS    0.05          1          18 NA    NA   
 4 FGT05  2007     1 RS    0.05          2          24 NA    NA   
 5 FGT05  2007     1 RS    0.5           1           9 NA    NA   
 6 FGT05  2007     1 RS    0.5           2          11 NA    NA   
 7 FGT05  2007     1 RS    1             1           0 NA    NA   
 8 FGT05  2007     1 RS    1             2           0 NA    NA   
 9 FGT05  2007     1 RS    5             1           0 NA    NA   
10 FGT05  2007     1 RS    5             2           0 NA    NA   
# ℹ 230 more rows
…
Code

dados2 <- read_excel("dados.xlsx",
                  sheet = "Planilha1")

dados2

# A tibble: 240 × 7
   code   year trial state dose  replicate germination
   <chr> <dbl> <dbl> <chr> <chr>     <dbl>       <dbl>
 1 FGT05  2007     1 RS    0             1          46
 2 FGT05  2007     1 RS    0             2          44
 3 FGT05  2007     1 RS    0.05          1          18
 4 FGT05  2007     1 RS    0.05          2          24
 5 FGT05  2007     1 RS    0.5           1           9
 6 FGT05  2007     1 RS    0.5           2          11
 7 FGT05  2007     1 RS    1             1           0
 8 FGT05  2007     1 RS    1             2           0
 9 FGT05  2007     1 RS    5             1           0
10 FGT05  2007     1 RS    5             2           0
# ℹ 230 more rows
…
