analise_estatistica – FIP_606
…
Os dados podem ser transformados de diferentes formas, sendo as mais comuns log e raiz quadrada. 

Transformação logarítmica

A transformação logarítmica é uma técnica comum utilizada na análise de dados para lidar com variáveis que apresentam distribuição assimétrica ou variância heterogênea. Ela pode ajudar a estabilizar a variância, aproximar os dados de uma distribuição normal e melhorar a interpretação dos resultados estatísticos.

No RStudio, a transformação logarítmica pode ser aplicada facilmente com funções como log(), log10() (logaritmo na base 10) ou log2() (logaritmo na base 2), dependendo do contexto da análise. Podemos realizar essa transformação com o uso da função mutate. Através da função mutate() realizamos a criação/adição de uma nova variável (ou novas variaveis), que são funções de variáveis existentes, e também criamos/modificamos colunas.

Code

mofo2 <- mofo |>
  mutate (scl2 = log(scl))
  mofo2

# A tibble: 52 × 6
   study treat   inc   scl   yld  scl2
   <dbl> <dbl> <dbl> <dbl> <dbl> <dbl>
 1     1     1    76  2194  2265  7.69
 2     1     2    53  1663  2618  7.42
 3     1     3    42  1313  2554  7.18
 4     1     4    37  1177  2632  7.07
 5     1     5    29   753  2820  6.62
 6     1     6    42  1343  2799  7.20
 7     1     7    55  1519  2503  7.33
 8     1     8    40   516  2967  6.25
 9     1     9    26   643  2965  6.47
10     1    10    18   400  3088  5.99
# ℹ 42 more rows
…
Transformação em raiz quadrada

A transformação em raiz quadrada é uma técnica estatística utilizada para corrigir assimetrias nos dados e estabilizar a variância, especialmente quando os dados representam contagens ou variáveis discretas com distribuição assimétrica.

Esse tipo de transformação é útil quando os dados apresentam variância crescente com a média, o que viola pressupostos importantes de muitos testes estatísticos, como a ANOVA e o teste t.

No RStudio, a transformação em raiz quadrada pode ser feita com a função sqrt():

Code

mofo2 <- mofo |>
  mutate (scl2 = sqrt(scl))
  mofo2

# A tibble: 52 × 6
   study treat   inc   scl   yld  scl2
   <dbl> <dbl> <dbl> <dbl> <dbl> <dbl>
 1     1     1    76  2194  2265  46.8
 2     1     2    53  1663  2618  40.8
 3     1     3    42  1313  2554  36.2
 4     1     4    37  1177  2632  34.3
 5     1     5    29   753  2820  27.4
 6     1     6    42  1343  2799  36.6
 7     1     7    55  1519  2503  39.0
 8     1     8    40   516  2967  22.7
 9     1     9    26   643  2965  25.4
10     1    10    18   400  3088  20  
# ℹ 42 more rows
…
Teste Não Paramétrico

Os testes não paramétricos são métodos estatísticos que não exigem que os dados sigam uma distribuição específica, como a normal. Por isso, são úteis quando as suposições dos testes paramétricos não são atendidas. Eles trabalham com dados em forma de postos (ordens) ou categorias e são ideais para amostras pequenas, dados assimétricos ou com outliers.

Exemplo: conjunto InsectSprays: efeito de inseticida na mortalidade de insetos. Dados no pacote datasets do R.

Carregando o conjunto de dados

Code

insects <- tibble::as_tibble(InsectSprays) |>
  dplyr::select(spray, count)
insects

# A tibble: 72 × 2
   spray count
   <fct> <dbl>
 1 A        10
 2 A         7
 3 A        20
 4 A        14
 5 A        14
 6 A        12
 7 A        10
 8 A        23
 9 A        17
10 A        20
# ℹ 62 more rows
…
